BaselDataScience - UVB radiation and vitamin D balance
…
Download data

downloading the data into temporary file tf

tf <- tempfile(pattern = 'vitamin_d', fileext = '.xlsx')
download.file('https://osf.io/download/3x2q8/', destfile = tf)

there is a legend block underneath the data block

variable names are going to be fun!

print(readxl::read_xlsx(tf, col_names = FALSE), n=5)

# A tibble: 90 × 29
  ...1      ...2  ...3  ...4  ...5  ...6  ...7  ...8  ...9  ...10 ...11 ...12 ...13 ...14 ...15 ...16 ...17 ...18
  <chr>     <chr> <chr> <chr> <chr> <chr> <chr> <chr> <chr> <chr> <chr> <chr> <chr> <chr> <chr> <chr> <chr> <chr>
1 <NA>      <NA>  <NA>  <NA>  <NA>  <NA>  <NA>  <NA>  <NA>  <NA>  Seru… <NA>  <NA>  <NA>  <NA>  <NA>  Weig… <NA> 
2 <NA>      <NA>  <NA>  <NA>  <NA>  <NA>  <NA>  <NA>  <NA>  <NA>  <NA>  <NA>  <NA>  <NA>  <NA>  <NA>  <NA>  <NA> 
3 <NA>      <NA>  <NA>  <NA>  <NA>  <NA>  <NA>  <NA>  <NA>  <NA>  Seru… <NA>  <NA>  <NA>  <NA>  <NA>  <NA>  <NA> 
4 Study na… Orig… New … Age   FST   Sex   BSA … UVR … UV6 … Date… Base… Post… Post… Post… Post… Post… CIE … CIE …
5 ICE56 A2b 008   1     29    II    F     PB    UV6   DDC   40963 51.4… 50.4  44.4… 49.3  53.5  53.8  211.… 341.…
# ℹ 85 more rows
# ℹ 11 more variables: ...19 <chr>, ...20 <chr>, ...21 <chr>, ...22 <chr>, ...23 <chr>, ...24 <chr>,
#   ...25 <chr>, ...26 <chr>, ...27 <chr>, ...28 <chr>, ...29 <chr>
…
